127.0.0.1 - - [04/Sep/2019:09:18:48 +0200] "GET / HTTP/1.1" 404 996
0:0:0:0:0:0:0:1 - - [04/Sep/2019:09:18:50 +0200] "GET /jesuis/ HTTP/1.1" 200 23
0:0:0:0:0:0:0:1 - - [04/Sep/2019:09:18:50 +0200] "GET /favicon.ico HTTP/1.1" 404 1007
127.0.0.1 - - [04/Sep/2019:14:09:01 +0200] "GET / HTTP/1.1" 404 996
0:0:0:0:0:0:0:1 - - [04/Sep/2019:14:09:02 +0200] "GET /batailleNavale2/ HTTP/1.1" 200 11728
0:0:0:0:0:0:0:1 - - [04/Sep/2019:14:09:03 +0200] "GET /favicon.ico HTTP/1.1" 404 1007
0:0:0:0:0:0:0:1 - - [04/Sep/2019:14:09:08 +0200] "GET /batailleNavale2/selection?numcase=6-2 HTTP/1.1" 200 11728
0:0:0:0:0:0:0:1 - - [04/Sep/2019:14:09:08 +0200] "GET /batailleNavale2/selection?numcase=5-3 HTTP/1.1" 200 11728
0:0:0:0:0:0:0:1 - - [04/Sep/2019:14:09:09 +0200] "GET /batailleNavale2/selection?numcase=4-4 HTTP/1.1" 200 11728
0:0:0:0:0:0:0:1 - - [04/Sep/2019:14:09:09 +0200] "GET /batailleNavale2/selection?numcase=3-5 HTTP/1.1" 200 11728
0:0:0:0:0:0:0:1 - - [04/Sep/2019:14:09:10 +0200] "GET /batailleNavale2/selection?numcase=2-6 HTTP/1.1" 200 11728
0:0:0:0:0:0:0:1 - - [04/Sep/2019:14:09:10 +0200] "GET /batailleNavale2/selection?numcase=1-5 HTTP/1.1" 200 11728
0:0:0:0:0:0:0:1 - - [04/Sep/2019:14:09:11 +0200] "GET /batailleNavale2/selection?numcase=0-4 HTTP/1.1" 200 11722
0:0:0:0:0:0:0:1 - - [04/Sep/2019:14:09:12 +0200] "GET /batailleNavale2/selection?numcase=0-3 HTTP/1.1" 200 11716
0:0:0:0:0:0:0:1 - - [04/Sep/2019:14:09:12 +0200] "GET /batailleNavale2/selection?numcase=0-2 HTTP/1.1" 200 11710
0:0:0:0:0:0:0:1 - - [04/Sep/2019:14:09:12 +0200] "GET /batailleNavale2/selection?numcase=0-1 HTTP/1.1" 200 11704
0:0:0:0:0:0:0:1 - - [04/Sep/2019:14:09:13 +0200] "GET /batailleNavale2/selection?numcase=0-0 HTTP/1.1" 200 11698
0:0:0:0:0:0:0:1 - - [04/Sep/2019:14:09:14 +0200] "GET /batailleNavale2/selection?numcase=0-6 HTTP/1.1" 200 11692
0:0:0:0:0:0:0:1 - - [04/Sep/2019:14:09:14 +0200] "GET /batailleNavale2/selection?numcase=0-5 HTTP/1.1" 200 11644
0:0:0:0:0:0:0:1 - - [04/Sep/2019:14:09:27 +0200] "GET /batailleNavale2/reset? HTTP/1.1" 200 11728
127.0.0.1 - - [04/Sep/2019:16:23:28 +0200] "GET / HTTP/1.1" 404 996
0:0:0:0:0:0:0:1 - - [04/Sep/2019:16:23:29 +0200] "GET /batailleNws/ HTTP/1.1" 404 969
0:0:0:0:0:0:0:1 - - [04/Sep/2019:16:24:55 +0200] "GET /batailleNws/ HTTP/1.1" 404 969
0:0:0:0:0:0:0:1 - - [04/Sep/2019:16:24:57 +0200] "GET /batailleNws/ HTTP/1.1" 404 969
0:0:0:0:0:0:0:1 - - [04/Sep/2019:16:25:52 +0200] "GET /batailleNws/ HTTP/1.1" 404 969
10.150.11.22 - - [04/Sep/2019:16:28:08 +0200] "GET /batailleNws/set/vincent/[0,1,2,3,4] HTTP/1.1" 400 1005
10.150.11.22 - - [04/Sep/2019:16:28:27 +0200] "GET /batailleNws/set/vincent/[0,1,2,3,4] HTTP/1.1" 400 1005
10.150.11.22 - - [04/Sep/2019:16:28:28 +0200] "GET /favicon.ico HTTP/1.1" 404 1007
0:0:0:0:0:0:0:1 - - [04/Sep/2019:16:28:29 +0200] "GET /batailleNws/ HTTP/1.1" 404 969
10.150.11.22 - - [04/Sep/2019:16:28:44 +0200] "GET /batailleNws/set/vincent/[0,1,2,3,4] HTTP/1.1" 400 1005
10.150.11.22 - - [04/Sep/2019:16:29:43 +0200] "GET /batailleNws/set/vincent/123 HTTP/1.1" 200 -
10.150.11.22 - - [04/Sep/2019:16:32:32 +0200] "GET /batailleNws/set/vincent/123 HTTP/1.1" 200 -
10.150.11.22 - - [04/Sep/2019:16:32:51 +0200] "GET /batailleNws/set/vincent/%5B0%2C1%2C2%2C3%2C4%5D HTTP/1.1" 200 -
10.150.11.22 - - [04/Sep/2019:16:33:48 +0200] "GET /batailleNws/set/vincent/%5B0%2C1%2C2%2C3%2C4%5D HTTP/1.1" 200 -
10.150.11.22 - - [04/Sep/2019:16:34:46 +0200] "GET /batailleNws/set/tom/%5B0%2C1%2C2%2C3%2C4%2C10%2C11%2C12%2C13%2C14%5D HTTP/1.1" 200 -
127.0.0.1 - - [04/Sep/2019:16:50:48 +0200] "GET / HTTP/1.1" 404 996
0:0:0:0:0:0:0:1 - - [04/Sep/2019:16:50:49 +0200] "GET /batailleNws/ HTTP/1.1" 404 969
10.150.11.22 - - [04/Sep/2019:16:50:55 +0200] "OPTIONS /batailleNws/set HTTP/1.1" 404 969
10.150.11.22 - - [04/Sep/2019:16:52:55 +0200] "OPTIONS /batailleNws/set HTTP/1.1" 404 969
10.150.11.22 - - [04/Sep/2019:16:53:24 +0200] "OPTIONS /batailleNws/set HTTP/1.1" 200 -
10.150.11.22 - - [04/Sep/2019:16:53:24 +0200] "POST /batailleNws/set HTTP/1.1" 200 -
10.150.11.22 - - [04/Sep/2019:16:58:50 +0200] "OPTIONS /batailleNws/set HTTP/1.1" 200 -
10.150.11.22 - - [04/Sep/2019:16:58:50 +0200] "POST /batailleNws/set HTTP/1.1" 500 4200
10.150.11.22 - - [04/Sep/2019:16:59:49 +0200] "OPTIONS /batailleNws/set HTTP/1.1" 200 -
10.150.11.22 - - [04/Sep/2019:16:59:49 +0200] "POST /batailleNws/set HTTP/1.1" 500 4200
10.150.11.22 - - [04/Sep/2019:17:00:37 +0200] "OPTIONS /batailleNws/set HTTP/1.1" 200 -
10.150.11.22 - - [04/Sep/2019:17:00:37 +0200] "POST /batailleNws/set HTTP/1.1" 500 4200
10.150.11.22 - - [04/Sep/2019:17:01:01 +0200] "OPTIONS /batailleNws/set HTTP/1.1" 200 -
10.150.11.22 - - [04/Sep/2019:17:01:01 +0200] "POST /batailleNws/set HTTP/1.1" 200 -
10.150.11.22 - - [04/Sep/2019:17:01:08 +0200] "OPTIONS /batailleNws/set HTTP/1.1" 200 -
10.150.11.22 - - [04/Sep/2019:17:01:08 +0200] "POST /batailleNws/set HTTP/1.1" 200 -
10.150.11.22 - - [04/Sep/2019:17:01:13 +0200] "OPTIONS /batailleNws/set HTTP/1.1" 200 -
10.150.11.22 - - [04/Sep/2019:17:01:13 +0200] "POST /batailleNws/set HTTP/1.1" 200 -
